COMPSCIX 415.2 Homework 7
…
The coefficient from lm model which is about 183,937 is quite different to the avarage value of SalePrice which is 180921.2. The R square is low close to zero to represent week relationship.

Exercise 4

Now fit a linear regression model using GrLivArea, OverallQual, and Neighborhood as the features. Dont forget to look at data_description.txt to understand what these variables mean. Ask yourself these questions before fitting the model:

What kind of relationship will these features have with our target? Can the relationship be estimated linearly? Are these good features, given the problem we are trying to solve? After fitting the model, output the coefficients and the R-squared using the broom package.

train_data_2<-train_data_1%>%mutate(Neighborhood_fct=factor(Neighborhood, ordered=FALSE))
train_mult_lm <- lm(SalePrice ~ GrLivArea + OverallQual + Neighborhood, data = train_data_2)
tidy(train_mult_lm)

## # A tibble: 27 x 5
##    term                estimate std.error statistic  p.value
##    <chr>                  <dbl>     <dbl>     <dbl>    <dbl>
##  1 (Intercept)         -34829.   11541.       -3.02 2.59e- 3
##  2 GrLivArea               55.6      2.50     22.2  2.38e-94
##  3 OverallQual          20951.    1162.       18.0  1.24e-65
##  4 NeighborhoodBlueste -30753.   27697.       -1.11 2.67e- 1
##  5 NeighborhoodBrDale  -43359.   12979.       -3.34 8.57e- 4
##  6 NeighborhoodBrkSide -13025.   10450.       -1.25 2.13e- 1
##  7 NeighborhoodClearCr  24576.   11570.        2.12 3.38e- 2
##  8 NeighborhoodCollgCr  11414.    9497.        1.20 2.30e- 1
##  9 NeighborhoodCrawfor  14444.   10502.        1.38 1.69e- 1
## 10 NeighborhoodEdwards -17843.    9986.       -1.79 7.42e- 2
## #  with 17 more rows
…
Excercise 6

One downside of the linear model is that it is sensitive to unusual values because the distance incorporates a squared term. Fit a linear model to the simulated data below (use y as the target and x as the feature), and look at the resulting coefficients and R-squared. Rerun it about 5-6 times to generate different simulated datasets. What do you notice about the models coefficient on x and the R-squared values?

sim1a <- tibble(
  x = rep(1:10, each = 3),
  y = x * 1.5 + 6 + rt(length(x), df = 2)
)
as.tibble(sim1a)

## Warning: `as.tibble()` is deprecated, use `as_tibble()` (but mind the new semantics).
## This warning is displayed once per session.

## # A tibble: 30 x 2
##        x     y
##    <int> <dbl>
##  1     1  7.33
##  2     1  7.53
##  3     1  7.73
##  4     2  7.82
##  5     2  9.22
##  6     2  8.87
##  7     3  7.64
##  8     3 10.9 
##  9     3  9.09
## 10     4 11.7 
## #  with 20 more rows
…
